…
##### Predictions

- Instead of a vector, 

  - the `predict()` function 
    - ran against a parsnip model 
    - returns a tibble. 
  - By default, the prediction variable 
    - is called `.pred_class`. 
  - In the example, notice that 
    - the baked testing data is used.

```{r}
predict(iris_ranger, iris_testing)
## # A tibble: 60 x 1
##    .pred_class
##    <fct>      
##  1 setosa     
##  2 setosa     
##  3 setosa     
##  4 setosa     
##  5 setosa     
##  6 setosa     
##  7 setosa     
##  8 setosa     
##  9 setosa     
## 10 setosa     
## # … with 50 more rows
```
…
